{
  "$type": "ConfigMonster",
  "common": {
    "mass": 10000.0,
    "height": 3,
    "affectedByWorld": true,
    "checkInSurface": true,
    "scale": 1.2,
    "viewSize": 1,
    "effectAttachShape": {
      "$type": "ConfigEffectAttachSkinnedMesh",
      "mesh": "Body",
      "normalOffset": 0,
      "scaleX": 1,
      "scaleY": 1,
      "scaleZ": 1
    }
  },
  "dither": {
    "showDitherDuration": 2.0,
    "normalBetweenCamera": {
      "detectDitherRange": 0.0
    }
  },
  "equipController": {
    "attachPoints": {},
    "sheathPoint": ""
  },
  "billboard": {
    "$type": "ConfigCombatBillboard",
    "offset": {
      "x": 0,
      "y": 1.5,
      "z": 0
    },
    "radiusOffset": 1.0,
    "enableSelfAdapt": true,
    "showHPBar": true,
    "size": "Big"
  },
  "move": {
    "$type": "ConfigAnimatorMove",
    "positionModifyState": "None",
    "destroyRockWhenInit": true
  },
  "combat": {
    "property": {
      "endureType": "Monster_Boss_Other",
      "weight": 300 //weightLevel = 3
    },
    "combatLock": {
      "denyLockOn": false,
      "lockType": "Avatar&Monster_Lv4"
    },
    "beHit": {
      "hitBloodEffect": "",
      "hitAutoRedirect": false,
      "muteAllHit": false,
      "muteAllHitEffect": false,
      "muteAllHitText": false
    },
    "die": {
      "hasAnimatorDie": false,
      "dieDisappearEffect": "",
      "dieDisappearEffectDelay": 1.0,
      "dieEndTime": 1,
      "dieForceDisappearTime": 4,
      "muteHitBox": true,
      "dieDenyLockOn": true,
      "dieIsGhostToEnemy": true,
      "dieIgnoreTriggerBullet": true,
      "muteBillboard": true,
      "mutePushCollider": true
    },
    "animEvents": {
      "AtkL01": {
        "attackPattern": {
          "$type": "ConfigAttackCircle",
          "duration": 0.0,
          "height": 3,
          "triggerType": "TriggerNoRepeat",
          "fanAngle": 150.0,
          "radius": 7,
          "born": {
            "$type": "ConfigBornBySelf",
            "offset": {
              "x": 0.0,
              "y": 0.0,
              "z": 0.0
            }
          }
        },
        "attackInfo": {
          "attackProperty": {
            "damagePercentage": 1.0,
            "strikeType": "Blunt",
            "attackType": "Melee",
            "enBreak": 100.0,
            "elementDurability": 50,
            "elementType": "Wind"
          },
          "hitPattern": {
            "hitImpulseType": "LV5",
            "reboundRatio": 0,
            "hitHaltTime": 0.0,
            "hitHaltTimeScale": 0.01,
            "muteHitText": false
          },
          "forceCameraShake": true,
          "cameraShake": {
            "shakeType": "Center",
            "shakeRange": 2,
            "shakeTime": 0.4,
            "shakeDistance": 30.0
          }
        }
      },
      "AtkL02": {
        "attackPattern": {
          "$type": "ConfigAttackBox",
          "triggerType": "TriggerNoRepeat",
          "size": {
            "x": 4,
            "y": 4,
            "z": 9
          },
          "born": {
            "$type": "ConfigBornBySelf",
            "offset": {
              "x": 0.0, // + means up, - means down
              "y": 2.0, // + means left, - means right
              "z": 3 // + means forward, - means backward
            }
          }
        },
        "attackInfo": {
          "attackProperty": {
            "damagePercentage": 1.0,
            "strikeType": "Blunt",
            "attackType": "Melee",
            "enBreak": 100.0,
            "elementDurability": 50,
            "elementType": "Electric"
          },
          "hitPattern": {
            "overrideHitImpulse": {
              "hitLevel": "Air",
              "hitImpulseX": 900,
              "hitImpulseY": 600
            },
            "reboundRatio": 0,
            "hitHaltTime": 0.0,
            "hitHaltTimeScale": 0.01,
            "muteHitText": false,
            "retreatType": "ByHitDirection"
          }
        }
      },
      "AtkL03": {
        "attackPattern": {
          "$type": "ConfigAttackCircle",
          "duration": 0.0,
          "height": 3,
          "triggerType": "TriggerNoRepeat",
          "fanAngle": 150.0,
          "radius": 5,
          "born": {
            "$type": "ConfigBornBySelf",
            "offset": {
              "x": 0.0,
              "y": 0.0,
              "z": 1.0
            }
          }
        },
        "attackInfo": {
          "attackProperty": {
            "damagePercentage": 1.0,
            "strikeType": "Blunt",
            "attackType": "Melee",
            "enBreak": 100.0,
            "elementDurability": 50,
            "elementType": "Electric"
          },
          "hitPattern": {
            "overrideHitImpulse": {
              "hitLevel": "Air",
              "hitImpulseX": 900,
              "hitImpulseY": 600
            },
            "reboundRatio": 0,
            "hitHaltTime": 0.0,
            "hitHaltTimeScale": 0.01,
            "muteHitText": false
          },
          "forceCameraShake": true,
          "cameraShake": {
            "shakeType": "Center",
            "shakeRange": 0.8,
            "shakeTime": 0.25,
            "shakeDistance": 30.0
          }
        }
      },
      "AtkL04": {
        "attackPattern": {
          "$type": "ConfigAttackCircle",
          "duration": 0.0,
          "triggerType": "TriggerNoRepeat",
          "fanAngle": 180.0,
          "height": 3,
          "radius": 6.0,
          "born": {
            "$type": "ConfigBornBySelf",
            "offset": {
              "x": 0.0,
              "y": 0.0,
              "z": 1.5
            }
          }
        },
        "attackInfo": {
          "attackProperty": {
            "damagePercentage": 1.0,
            "strikeType": "Blunt",
            "attackType": "Melee",
            "enBreak": 100.0,
            "elementDurability": 50,
            "elementType": "Electric"
          },
          "hitPattern": {
            "overrideHitImpulse": {
              "hitLevel": "Air",
              "hitImpulseX": 1000,
              "hitImpulseY": 600
            },
            "reboundRatio": 0,
            "hitHaltTime": 0.0,
            "hitHaltTimeScale": 0.01,
            "muteHitText": false
          },
          "forceCameraShake": true,
          "cameraShake": {
            "shakeType": "CustomVector",
            "shakeRange": 1.0,
            "shakeTime": 0.25,
            "shakeDistance": 30.0
          }
        }
      }
    }
  },
  "inputKeys": [
    {
      "keyID": 203,
      "inputKeyCode": 257
    },
    {
      "keyID": 303,
      "inputKeyCode": 258
    },
    {
      "keyID": 403,
      "inputKeyCode": 259
    },
    {
      "keyID": 702,
      "inputKeyCode": 260
    },
    {
      "keyID": 802,
      "inputKeyCode": 261
    },
    {
      "keyID": 1201,
      "inputKeyCode": 262
    },
    {
      "keyID": 1002,
      "inputKeyCode": 263
    },
    {
      "keyID": 1101,
      "inputKeyCode": 264
    },
    {
      "keyID": 901,
      "inputKeyCode": 265
    }
  ],
  "stateLayers": {
    "defaultLayer": {
      "$type": "ConfigNormalStateLayer",
      "stateIDs": {
        "Born": {
          "$type": "ConfigMonsterStateIDInfo",
          "animatorStates": {
            "Born": ["Audio_Effigy_Wind_Born"]
          },
          "combatMove": true,
          "canDoSkill": true,
          "canSyncMove": true,
          "resetAnimatorTriggerOnExit": ["DoSkill", "ToShaderState1"]
        },
        "Standby_BS": {
          "$type": "ConfigMonsterStateIDInfo",
          "animatorStates": {
            "Standby_BS": [""]
          },
          "combatMove": true,
          "canSyncMove": true,
          "cullingModelAlwaysAnimate": true,
          "resetAnimatorTriggerOnExit": ["DoSkill", "ToShaderState1"]
        },
        "Standby_AS": {
          "$type": "ConfigMonsterStateIDInfo",
          "animatorStates": {
            "Standby_AS": [""]
          },
          "combatMove": true,
          "canDoSkill": true,
          "canSyncMove": true,
          "cullingModelAlwaysAnimate": true,
          "resetAnimatorTriggerOnExit": ["DoSkill", "ToShaderState1"]
        },
        "StandbyFree": {
          "$type": "ConfigMonsterStateIDInfo",
          "animatorStates": {
            "StandbyFree": []
          },
          "combatMove": true,
          "canDoSkill": true,
          "canSyncMove": true,
          "cullingModelAlwaysAnimate": true,
          "resetAnimatorTriggerOnExit": ["DoSkill", "ToShaderState1"]
        },
        "BeHit": {
          "$type": "ConfigMonsterStateIDInfo",
          "animatorStates": {
            "Hit_L": [],
            "Hit_H": []
          },
          "combatMove": true,
          "resetAnimatorTriggerOnEnter": ["BeHit"],
          "resetAnimatorTriggerOnExit": ["DoSkill", "ToShaderState1"]
        },
        "BeHitThrow": {
          "$type": "ConfigMonsterStateIDInfo",
          "animatorStates": {
            "HitThrow": [],
            "HitThrowDrop": [],
            "HitThrowToGround": []
          },
          "combatMove": true,
          "resetAnimatorTriggerOnEnter": ["BeHit", "HitAir2HitDrop"],
          "resetAnimatorTriggerOnExit": ["DoSkill", "ToShaderState1"]
        },
        "Die": {
          "$type": "ConfigMonsterStateIDInfo",
          "animatorStates": {
            "Die": ["Monster_Effigy_Wind_Die", "Audio_Effigy_Wind_Die"],
            "SwimDie": ["Monster_Effigy_Wind_Die"]
          },
          "combatMove": true,
          "cullingModelAlwaysAnimate": true
        },
        "Dying": {
          "$type": "ConfigMonsterStateIDInfo",
          "animatorStates": {
            "Dying_Blink": [
              "Monster_Effigy_Wind_Reborn_Blink",
              "Audio_Effigy_Wind_Blink"
            ],
            "Dying": []
          },
          "combatMove": true,
          "resetAnimatorTriggerOnEnter": ["DyingState"],
          "resetAnimatorTriggerOnExit": ["BeHit", "DoSkill", "DyingState"],
          "cullingModelAlwaysAnimate": true
        },
        "Dying_AS": {
          "$type": "ConfigMonsterStateIDInfo",
          "animatorStates": {
            "Dying_AS": ["Monster_Effigy_Wind_DyingAS"]
          },
          "combatMove": true,
          "resetAnimatorTriggerOnEnter": ["DyingState"],
          "resetAnimatorTriggerOnExit": ["BeHit", "DoSkill", "DyingState"],
          "cullingModelAlwaysAnimate": true
        },
        "Warning": {
          "$type": "ConfigMonsterStateIDInfo",
          "animatorStates": {
            "Warning": ["Audio_Effigy_Wind_Warning"]
          },
          "combatMove": true,
          "resetAnimatorTriggerOnExit": ["BeHit", "DoSkill", "ToShaderState1"]
        },
        "RushAway": {
          "$type": "ConfigMonsterStateIDInfo",
          "animatorStates": {
            "RushAway_BS": []
          },
          "combatMove": true,
          "canSyncMove": true,
          "cullingModelAlwaysAnimate": true,
          "resetAnimatorTriggerOnExit": ["BeHit", "DoSkill"]
        },
        "RushAway_AS": {
          "$type": "ConfigMonsterStateIDInfo",
          "animatorStates": {
            "RushAway_AS": ["Audio_Effigy_Wind_Rush_AS"]
          },
          "combatMove": true,
          "canSteer": true,
          "canDoSkill": true,
          "canSyncMove": true,
          "cullingModelAlwaysAnimate": true,
          "resetAnimatorTriggerOnExit": ["BeHit", "DoSkill"]
        },
        "EnergyAbsorb": {
          "$type": "ConfigMonsterStateIDInfo",
          "animatorStates": {
            "EnergyAbsorb_Blink": [
              "Monster_Effigy_Wind_EnergyAbsorb_Blink",
              "Audio_Effigy_Wind_Blink"
            ],
            "EnergyAbsorb_BS": [
              "Monster_Effigy_Wind_EnergyAbsorbBS",
              "Audio_Effigy_Wind_EnergyAbsorb_BS"
            ],
            "EnergyAbsorb_Loop1": [],
            "EnergyAbsorb_Loop2": ["Monster_Effigy_Wind_EnergyAbsorbLoop2"],
            "EnergyAbsorb_AS1": ["Audio_Effigy_Wind_EnergyAbsorb_AS1"],
            "EnergyAbsorb_AS2": [
              "Monster_Effigy_Wind_EnergyAbsorbAS2",
              "Monster_Effigy_Wind_RandomMoveRandomed",
              "Audio_Effigy_Wind_EnergyAbsorb_AS2"
            ]
          },
          "combatMove": true,
          "canSyncMove": true,
          "cullingModelAlwaysAnimate": true,
          "resetAnimatorTriggerOnExit": [
            "BeHit",
            "DoSkill",
            "ToShaderState2",
            "RushAwayTrigger"
          ]
        },
        "Vortex": {
          "$type": "ConfigMonsterStateIDInfo",
          "animatorStates": {
            "Vortex_BS": [
              "Monster_Effigy_Wind_VortexBS",
              "Audio_Effigy_Wind_Vortex_BS"
            ],
            "Vortex_Loop": [],
            "Vortex_AS": [
              "Monster_Effigy_Wind_VortexAS",
              "Audio_Effigy_Wind_Vortex_AS"
            ],
            "Vortex_CoreOutLoop": [],
            "Vortex_CoreOutAS": [
              "Monster_Effigy_Wind_SingleAtk_CoreOutAS",
              "Monster_Effigy_Wind_RandomMoveRandomed",
              "Audio_Effigy_Wind_CoreOut_AS"
            ]
          },
          "combatMove": true,
          "canSteer": true,
          "resetAnimatorTriggerOnExit": [
            "BeHit",
            "DoSkill",
            "ToShaderState2",
            "RushAwayTrigger"
          ],
          "cullingModelAlwaysAnimate": true
        },
        "Vortex_Rush": {
          "$type": "ConfigMonsterStateIDInfo",
          "animatorStates": {
            "Vortex_Rush": ["Monster_Effigy_Wind_Rush"]
          },
          "combatMove": true,
          "canSteer": true,
          "canSyncMove": true,
          "cullingModelAlwaysAnimate": true,
          "resetAnimatorTriggerOnExit": [
            "BeHit",
            "DoSkill",
            "ToShaderState2",
            "Vortex_RushStop"
          ]
        },
        "WindFall": {
          "$type": "ConfigMonsterStateIDInfo",
          "animatorStates": {
            "WindFall_BS": [
              "Monster_Effigy_Wind_WindFallBS",
              "Audio_Effigy_Wind_WindFall_BS"
            ],
            "WindFall_Loop": [],
            "WindFall_AS1": ["Monster_Effigy_Wind_WindFallAS1"],
            "WindFall_AS2": [
              "Monster_Effigy_Wind_RandomMoveRandomed",
              "Monster_Effigy_Wind_WindFallAS2",
              "Audio_Effigy_Wind_CoreOut_AS"
            ]
          },
          "combatMove": true,
          "resetAnimatorTriggerOnExit": [
            "BeHit",
            "DoSkill",
            "ElectricDefenceStopTrigger",
            "ToShaderState2",
            "RushAwayTrigger"
          ],
          "cullingModelAlwaysAnimate": true
        },
        "SingleAtk": {
          "$type": "ConfigMonsterStateIDInfo",
          "animatorStates": {
            "SingleAtk": [
              "Monster_Effigy_Wind_SingleAtk",
              "Audio_Effigy_Wind_SingleAtk"
            ],
            "SingleAtk_CoreOutLoop": [],
            "SingleAtk_CoreOutAS": [
              "Monster_Effigy_Wind_SingleAtk_CoreOutAS",
              "Monster_Effigy_Wind_RandomMoveRandomed",
              "Audio_Effigy_Wind_CoreOut_AS"
            ]
          },
          "combatMove": true,
          "canSteer": true,
          "resetAnimatorTriggerOnExit": ["BeHit", "DoSkill", "RushAwayTrigger"],
          "cullingModelAlwaysAnimate": true
        },
        "SingleAtk_Rush": {
          "$type": "ConfigMonsterStateIDInfo",
          "animatorStates": {
            "SingleAtk_Rush": [
              "Monster_Effigy_Wind_Rush",
              "Audio_Effigy_Wind_SingleAtk_Rush"
            ]
          },
          "combatMove": true,
          "canSteer": true,
          "canSyncMove": true,
          "cullingModelAlwaysAnimate": true,
          "resetAnimatorTriggerOnExit": [
            "BeHit",
            "DoSkill",
            "SingleAtk_RushStop"
          ]
        },
        "MultiAtk": {
          "$type": "ConfigMonsterStateIDInfo",
          "animatorStates": {
            "MultiAtk": [
              "Monster_Effigy_Wind_MultiAtk",
              "Audio_Effigy_Wind_MultiAtk"
            ],
            "MultiAtk_CoreOutLoop": [],
            "MultiAtk_CoreOutAS": [
              "Monster_Effigy_Wind_SingleAtk_CoreOutAS",
              "Monster_Effigy_Wind_RandomMoveRandomed",
              "Audio_Effigy_Wind_CoreOut_AS"
            ]
          },
          "combatMove": true,
          "canSteer": true,
          "canSyncMove": true,
          "resetAnimatorTriggerOnExit": [
            "BeHit",
            "DoSkill",
            "ToShaderState2",
            "RushAwayTrigger"
          ],
          "cullingModelAlwaysAnimate": true
        },
        "MultiAtk_Rush": {
          "$type": "ConfigMonsterStateIDInfo",
          "animatorStates": {
            "MultiAtk_Rush": ["Monster_Effigy_Wind_Rush"]
          },
          "combatMove": true,
          "canSteer": true,
          "canSyncMove": true,
          "cullingModelAlwaysAnimate": true,
          "resetAnimatorTriggerOnExit": [
            "BeHit",
            "DoSkill",
            "MultiAtk_RushStop"
          ]
        },
        "Storm": {
          "$type": "ConfigMonsterStateIDInfo",
          "animatorStates": {
            "Storm_Blink": [
              "Monster_Effigy_Wind_Blink",
              "Audio_Effigy_Wind_Blink"
            ],
            "Storm_BS": [
              "Monster_Effigy_Wind_StormBS",
              "Audio_Effigy_Wind_Storm_BS"
            ],
            "Storm_Loop1": [],
            "Storm_AS1": [
              "Monster_Effigy_Wind_StormAS1",
              "Audio_Effigy_Wind_Storm_AS1"
            ],
            "Storm_Loop2": [],
            "Storm_AS2": [
              "Monster_Effigy_Wind_StormAS2",
              "Monster_Effigy_Wind_RandomMoveRandomed"
            ]
          },
          "combatMove": true,
          "resetAnimatorTriggerOnExit": [
            "BeHit",
            "DoSkill",
            "ToShaderState2",
            "RushAwayTrigger"
          ],
          "cullingModelAlwaysAnimate": true
        },
        "Tornado": {
          "$type": "ConfigMonsterStateIDInfo",
          "animatorStates": {
            "Tornado_Blink": ["Monster_Effigy_Wind_Blink"],
            "Tornado_BS": [
              "Monster_Effigy_Wind_TornadoBS",
              "Audio_Effigy_Wind_Tornado_BS"
            ],
            "Tornado_Loop": ["Audio_Effigy_Wind_Tornado_Loop"],
            "Tornado_AS": [
              "Monster_Effigy_Wind_TornadoAS",
              "Audio_Effigy_Wind_tornado_dissipate"
            ],
            "Tornado_CoreOutLoop": [],
            "Tornado_CoreOutAS": [
              "Monster_Effigy_Wind_SingleAtk_CoreOutAS",
              "Monster_Effigy_Wind_RandomMoveRandomed",
              "Audio_Effigy_Wind_CoreOut_AS"
            ]
          },
          "combatMove": true,
          "canSyncMove": true,
          "resetAnimatorTriggerOnExit": [
            "BeHit",
            "DoSkill",
            "ToShaderState2",
            "RushAwayTrigger"
          ],
          "cullingModelAlwaysAnimate": true
        },
        "AirGun": {
          "$type": "ConfigMonsterStateIDInfo",
          "animatorStates": {
            "AirGun_BS": [
              "Monster_Effigy_Wind_AirGunBS",
              "Audio_Effigy_Wind_AirGun_BS"
            ],
            "AirGun_Loop": [],
            "AirGun_AS": [
              "Monster_Effigy_Wind_RandomMoveRandomed",
              "Monster_Effigy_Wind_AirGunAS",
              "Audio_Effigy_Wind_AirGun_AS"
            ]
          },
          "combatMove": true,
          "canSteer": true,
          "resetAnimatorTriggerOnExit": [
            "BeHit",
            "DoSkill",
            "ToShaderState2",
            "RushAwayTrigger"
          ],
          "cullingModelAlwaysAnimate": true
        },
        "ReturnToBorn": {
          "$type": "ConfigMonsterStateIDInfo",
          "animatorStates": {
            "ReturnToBorn": [],
            "ReturnToBorn_Blink": [
              "Monster_Effigy_Wind_ReturnToBorn",
              "Audio_Effigy_Wind_Blink"
            ],
            "ReturnToBorn_AS": []
          },
          "combatMove": true,
          "canSyncMove": true,
          "resetAnimatorTriggerOnExit": ["BeHit", "DoSkill"],
          "cullingModelAlwaysAnimate": true
        },
        //Elite
        "WindButterfly": {
          "$type": "ConfigMonsterStateIDInfo",
          "animatorStates": {
            "WindButterfly_BS": [
              "Monster_Effigy_Wind_Elite_WindButterfly_BS",
              "Aduio_Effigy_wind_WindButterFly_BS"
            ],
            "WindButterfly_Loop": [
              "Monster_Effigy_Wind_Elite_WindButterfly_Loop",
              "Aduio_Effigy_wind_WindButterFly_Loop"
            ],
            "WindButterfly_AS": [
              "Monster_Effigy_Wind_Elite_WindButterfly_AS",
              "Aduio_Effigy_wind_WindButterFly_AS"
            ],
            "WindButterfly_CoreOutLoop": [],
            "WindButterfly_CoreOutAS": [
              "Monster_Effigy_Wind_RandomMoveRandomed",
              "Aduio_Effigy_wind_WindButterFly_CourOutAS"
            ]
          },
          "combatMove": true,
          "canSyncMove": true,
          "resetAnimatorTriggerOnExit": [
            "BeHit",
            "DoSkill",
            "ToShaderState2",
            "RushAwayTrigger"
          ],
          "cullingModelAlwaysAnimate": true
        },
        "WindButterflyWeak": {
          "$type": "ConfigMonsterStateIDInfo",
          "animatorStates": {
            "WindButterfly_CoreWeakBS": [
              "Monster_Effigy_Wind_Elite_WindButterfly_AS",
              "Aduio_Effigy_wind_WindButterFly_CourOutBS"
            ],
            "WindButterfly_CoreWeakLoop": [],
            "WindButterfly_CoreWeakAS": [
              "Monster_Effigy_Wind_RandomMoveRandomed",
              "Monster_Effigy_Wind_SingleAtk_CoreOutAS"
            ]
          },
          "combatMove": true,
          "canSyncMove": true,
          "resetAnimatorTriggerOnEnter": ["BeHitByFallingAtk"],
          "resetAnimatorTriggerOnExit": [
            "BeHit",
            "DoSkill",
            "ToShaderState2",
            "RushAwayTrigger"
          ],
          "cullingModelAlwaysAnimate": true
        },
        "WindButterflyBlink": {
          "$type": "ConfigMonsterStateIDInfo",
          "animatorStates": {
            "WindButterfly_Blink": [
              "Monster_Effigy_Wind_Elite_WindButterfly_Blink",
              "Aduio_Effigy_wind_WindButterFly_Blink"
            ]
          },
          "combatMove": true,
          "canSyncMove": true,
          "resetAnimatorTriggerOnExit": [
            "BeHit",
            "DoSkill",
            "ToShaderState2",
            "RushAwayTrigger"
          ],
          "cullingModelAlwaysAnimate": true
        },
        "EliteWindFall": {
          "$type": "ConfigMonsterStateIDInfo",
          "animatorStates": {
            "EliteWindFall_BS": [
              "Monster_Effigy_Wind_WindFallBS",
              "Audio_Effigy_Wind_WindFall_BS"
            ],
            "EliteWindFall_Loop": [],
            "EliteWindFall_AS1": ["Monster_Effigy_Wind_WindFallAS1"],
            "EliteWindFall_AS2": [
              "Monster_Effigy_Wind_RandomMoveRandomed",
              "Monster_Effigy_Wind_WindFallAS2",
              "Audio_Effigy_Wind_CoreOut_AS"
            ]
          },
          "combatMove": true,
          "resetAnimatorTriggerOnExit": [
            "BeHit",
            "DoSkill",
            "ElectricDefenceStopTrigger",
            "ToShaderState2",
            "RushAwayTrigger"
          ],
          "cullingModelAlwaysAnimate": true
        },
        "EliteEnergyAbsorb": {
          "$type": "ConfigMonsterStateIDInfo",
          "animatorStates": {
            "EliteEnergyAbsorb_Blink": [
              "Monster_Effigy_Wind_EnergyAbsorb_Blink",
              "Audio_Effigy_Wind_Blink"
            ],
            "EliteEnergyAbsorb_BS": [
              "Monster_Effigy_Wind_EnergyAbsorbBS",
              "Audio_Effigy_Wind_EnergyAbsorb_BS"
            ],
            "EliteEnergyAbsorb_Loop1": [],
            "EliteEnergyAbsorb_Loop3": [], // 用来做场中无球时，延迟退出状态的
            "EliteEnergyAbsorb_Loop2": [
              "Monster_Effigy_Wind_EnergyAbsorbLoop2"
            ],
            "EliteEnergyAbsorb_AS1": ["Audio_Effigy_Wind_EnergyAbsorb_AS1"],
            "EliteEnergyAbsorb_AS2": [
              "Monster_Effigy_Wind_EnergyAbsorbAS2",
              "Monster_Effigy_Wind_RandomMoveRandomed",
              "Audio_Effigy_Wind_EnergyAbsorb_AS2"
            ]
          },
          "combatMove": true,
          "canSyncMove": true,
          "resetAnimatorTriggerOnExit": [
            "BeHit",
            "DoSkill",
            "ToShaderState2",
            "RushAwayTrigger"
          ]
        }
      }
    }
  },
  "abilities": [
    {
      "abilityID": "Monster_Effigy_Wind_ShaderState1ToState2",
      "abilityName": "Monster_Effigy_Wind_ShaderState1ToState2"
    },
    {
      "abilityID": "Monster_Effigy_Wind_ShaderState2ToState1",
      "abilityName": "Monster_Effigy_Wind_ShaderState2ToState1"
    },
    {
      "abilityID": "Monster_Effigy_Wind_CoreOutAS",
      "abilityName": "Monster_Effigy_Wind_CoreOutAS"
    },
    {
      "abilityID": "Monster_Effigy_Wind_Shield",
      "abilityName": "Monster_Effigy_Wind_Shield"
    },
    {
      "abilityID": "Monster_Effigy_Wind_Core",
      "abilityName": "Monster_Effigy_Wind_Core"
    },
    {
      "abilityID": "Monster_Effigy_Wind_RebornState",
      "abilityName": "Monster_Effigy_Wind_RebornState"
    },
    {
      "abilityID": "Monster_Effigy_Wind_HpDetect",
      "abilityName": "Monster_Effigy_Wind_HpDetect"
    },
    {
      "abilityID": "Monster_Effigy_Wind_RebornStart",
      "abilityName": "Monster_Effigy_Wind_RebornStart"
    },
    {
      "abilityID": "Monster_Effigy_Wind_RebornElemBall",
      "abilityName": "Monster_Effigy_Wind_RebornElemBall"
    },
    {
      "abilityID": "Monster_Effigy_Wind_HealHp",
      "abilityName": "Monster_Effigy_Wind_HealHp"
    },
    {
      "abilityID": "Monster_Effigy_Wind_SetDyingPose",
      "abilityName": "Monster_Effigy_Wind_SetDyingPose"
    },
    {
      "abilityID": "Monster_Effigy_Wind_SetCoreOutPose",
      "abilityName": "Monster_Effigy_Wind_SetCoreOutPose"
    },
    {
      "abilityID": "Monster_Effigy_Wind_SetCoreInPose",
      "abilityName": "Monster_Effigy_Wind_SetCoreInPose"
    },
    {
      "abilityID": "Monster_Effigy_Wind_SetRebornPose",
      "abilityName": "Monster_Effigy_Wind_SetRebornPose"
    },
    {
      "abilityID": "Monster_Effigy_Wind_WindFall",
      "abilityName": "Monster_Effigy_Wind_WindFall"
    },
    {
      "abilityID": "Monster_Effigy_Wind_CreateTornadoEmitter",
      "abilityName": "Monster_Effigy_Wind_CreateTornadoEmitter"
    },
    {
      "abilityID": "Monster_Effigy_Wind_EnergyAbsorb",
      "abilityName": "Monster_Effigy_Wind_EnergyAbsorb"
    },
    {
      "abilityID": "Monster_Effigy_Wind_WindExplode",
      "abilityName": "Monster_Effigy_Wind_WindExplode"
    },
    {
      "abilityID": "Monster_Effigy_Wind_FireExplode",
      "abilityName": "Monster_Effigy_Wind_FireExplode"
    },
    {
      "abilityID": "Monster_Effigy_Wind_ElectricExplode",
      "abilityName": "Monster_Effigy_Wind_ElectricExplode"
    },
    {
      "abilityID": "Monster_Effigy_Wind_WaterExplode",
      "abilityName": "Monster_Effigy_Wind_WaterExplode"
    },
    {
      "abilityID": "Monster_Effigy_Wind_IceExplode",
      "abilityName": "Monster_Effigy_Wind_IceExplode"
    },
    {
      "abilityID": "Monster_Effigy_Wind_AirGun",
      "abilityName": "Monster_Effigy_Wind_AirGun"
    },
    {
      "abilityID": "Monster_Effigy_Wind_VortexWindZone",
      "abilityName": "Monster_Effigy_Wind_VortexWindZone"
    },
    {
      "abilityID": "Monster_Effigy_Wind_VortexExplode",
      "abilityName": "Monster_Effigy_Wind_VortexExplode"
    },
    {
      "abilityID": "Monster_Effigy_Wind_FindBlinkPos",
      "abilityName": "Monster_Effigy_Wind_FindBlinkPos"
    },
    {
      "abilityID": "Monster_Effigy_Wind_Blink",
      "abilityName": "Monster_Effigy_Wind_Blink"
    },
    {
      "abilityID": "Monster_Effigy_Wind_BlinkStart",
      "abilityName": "Monster_Effigy_Wind_BlinkStart"
    },
    {
      "abilityID": "Monster_Effigy_Wind_BlinkAS",
      "abilityName": "Monster_Effigy_Wind_BlinkAS"
    },
    {
      "abilityID": "Monster_Effigy_Wind_Storm",
      "abilityName": "Monster_Effigy_Wind_Storm"
    },
    {
      "abilityID": "Monster_Effigy_Wind_Steer",
      "abilityName": "Monster_Effigy_Wind_Steer"
    },
    {
      "abilityID": "Monster_Effigy_Wind_WindBlade",
      "abilityName": "Monster_Effigy_Wind_WindBlade"
    },
    {
      "abilityID": "Monster_Effigy_Wind_RandomMove",
      "abilityName": "Monster_Effigy_Wind_RandomMove"
    },
    {
      "abilityID": "Monster_Effigy_Wind_RandomMoveStart",
      "abilityName": "Monster_Effigy_Wind_RandomMoveStart"
    },
    {
      "abilityID": "Monster_Effigy_Wind_MultiAtk_Start",
      "abilityName": "Monster_Effigy_Wind_MultiAtk_Start"
    },
    {
      "abilityID": "Monster_Effigy_Wind_MultiAtk_Attack",
      "abilityName": "Monster_Effigy_Wind_MultiAtk_Attack"
    },
    {
      "abilityID": "Monster_Effigy_Wind_Reborn_FindBlinkPos",
      "abilityName": "Monster_Effigy_Wind_Reborn_FindBlinkPos"
    },
    {
      "abilityID": "Monster_Effigy_Wind_FindBlinkPos_EnergyAbsorbStart",
      "abilityName": "Monster_Effigy_Wind_FindBlinkPos_EnergyAbsorbStart"
    },
    {
      "abilityID": "Monster_Effigy_Wind_FindBlinkPos_EnergyAbsorb",
      "abilityName": "Monster_Effigy_Wind_FindBlinkPos_EnergyAbsorb"
    },
    {
      "abilityID": "Monster_Common_WindMuteHurt",
      "abilityName": "Monster_Common_WindMuteHurt"
    },
    {
      "abilityID": "Monster_Effigy_Wind_KillElemBall",
      "abilityName": "Monster_Effigy_Wind_KillElemBall"
    },
    {
      "abilityID": "Monster_Effigy_ReturnToBorn",
      "abilityName": "Monster_Effigy_ReturnToBorn"
    },
    //Elite
    {
      "abilityID": "Monster_Effigy_Wind_Elite_SetEffigyEliteFlag",
      "abilityName": "Monster_Effigy_Wind_Elite_SetEffigyEliteFlag"
    },
    {
      "abilityID": "Monster_Effigy_Wind_Elite_AirBlade",
      "abilityName": "Monster_Effigy_Wind_Elite_AirBlade"
    },
    {
      "abilityID": "Monster_Effigy_Wind_Elite_WindFall",
      "abilityName": "Monster_Effigy_Wind_Elite_WindFall"
    },
    {
      "abilityID": "Monster_Effigy_Wind_Elite_RebornElemBall",
      "abilityName": "Monster_Effigy_Wind_Elite_RebornElemBall"
    },
    {
      "abilityID": "Monster_Effigy_Wind_Elite_WindButterfly_Start",
      "abilityName": "Monster_Effigy_Wind_Elite_WindButterfly_Start"
    },
    {
      "abilityID": "Monster_Effigy_Wind_Elite_WindButterfly_Damage",
      "abilityName": "Monster_Effigy_Wind_Elite_WindButterfly_Damage"
    },
    {
      "abilityID": "Monster_Effigy_Wind_Elite_WindButterfly_Launch",
      "abilityName": "Monster_Effigy_Wind_Elite_WindButterfly_Launch"
    }
  ],
  "initialPoses": {
    "Default": {
      "initialPoseID": 0
    }
  },
  "aibeta": {
    "enable": true,
    "moveSetting": {
      "useNavMesh": false
    },
    "skillGCD": 1.5,
    "profiling": {
      "lodStrategy": "Best"
    },
    "sensing": {
      "settings": {
        "DefaultSetting": {
          "viewPanoramic": true,
          "feelRange": 50.0
        }
      },
      "templates": {
        "DefaultTemplate": {
          "DefaultPoses": "DefaultSetting"
        }
      }
    },
    "defendArea": {
      "defendRange": 50.0
    },
    "threat": {
      "clearThreatTargetDistance": 70.0,
      "clearThreatEdgeDistance": 7.5,
      "clearThreatByTargetOutOfZone": true,
      "viewThreatGrow": 35.0,
      "feelThreatGrow": 500.0,
      "threatDecreaseSpeed": 100,
      "resistTauntLevel": "Monster_TauntLevel_4"
    },
    "returnToBornTactic": {
      "enable": true,
      "condition": {
        "pose": [1, 101, 1101]
      },
      "defaultSetting": {
        "speedLevel": 0,
        "fadeoutBeginTime": 3.0,
        "fadeoutEndTime": 3.5
      }
    },
    "wanderTactic": {
      "enable": false
    },
    "skillGroupCDConfigs": [
      { "skillGroupCDID": 0, "skillGroupCDTime": 20 },
      { "skillGroupCDID": 1, "skillGroupCDTime": 20 },
      { "skillGroupCDID": 2, "skillGroupCDTime": 20 },
      { "skillGroupCDID": 3, "skillGroupCDTime": 45 },
      { "skillGroupCDID": 4, "skillGroupCDTime": 45 },
      { "skillGroupCDID": 5, "skillGroupCDTime": 45 },
      { "skillGroupCDID": 6, "skillGroupCDTime": 45 },
      // Elite
      { "skillGroupCDID": 7, "skillGroupCDTime": 45 }
    ],
    "skillSetting": {
      "skillEliteSet": {
        "1": [201, 202, 301, 302, 401, 402, 701, 801, 901, 902, 1001],
        "2": [203, 204, 303, 304, 403, 404, 702, 802, 1002, 1101, 1201]
      }
    },
    "skills": {
      "100": {
        "name": "OnAlert",
        "stateIDs": ["Warning"],
        "skillType": "OnAlert",
        "skillQueryingTime": 3,
        "triggerGCD": false,
        "faceTarget": true,
        "ignoreGCD": true,
        "castCondition": {
          "pickRangeMin": 0.0,
          "pickRangeMax": 7.5,
          "pose": [1, 101, 201, 1101, 1201]
        }
      },
      "201": {
        "cd": 15,
        "cdUpperRange": 10,
        "skillQueryingTime": 3.5,
        "name": "SingleAtk",
        "stateIDs": ["SingleAtk"],
        "skillGroupCDID": 0,
        "castCondition": {
          "pickRangeMin": 0.0,
          "pickRangeMax": 7.5,
          "pose": [101, 1101]
        }
      },
      "202": {
        "cd": 30,
        "cdUpperRange": 5,
        "priority": 4,
        "name": "SingleAtk",
        "skillQueryingTime": 3.5,
        "flagTargetInZone": "10",
        "stateIDs": ["SingleAtk", "SingleAtk_Rush"],
        "skillGroupCDID": 0,
        "castCondition": {
          "pickRangeMin": 10,
          "pickRangeMax": 25,
          "pose": [101, 1101]
        }
      },
      // Elite，增加施法判定距离
      "203": {
        "cd": 30,
        "cdUpperRange": 10,
        "initialCD": 5.0,
        "initialCDUpperRange": 3.5,
        "priority": 3,
        "skillQueryingTime": 3.5,
        "flagTargetReachable": "11",
        "name": "SingleAtk",
        "stateIDs": ["SingleAtk"],
        "skillGroupCDID": 7,
        "castCondition": {
          "pickRangeMin": 0.0,
          "pickRangeMax": 10.0,
          "castRangeMin": 0.0,
          "castRangeMax": 10.0,
          "pose": [101, 1101]
        }
      },
      "204": {
        "cd": 30,
        "cdUpperRange": 5,
        "initialCD": 5.0,
        "initialCDUpperRange": 3.5,
        "priority": 3,
        "flagTargetReachable": "11",
        "name": "SingleAtk",
        "skillQueryingTime": 3.5,
        "flagTargetInZone": "10",
        "stateIDs": ["SingleAtk", "SingleAtk_Rush"],
        "skillGroupCDID": 7,
        "castCondition": {
          "pickRangeMin": 10.0,
          "pickRangeMax": 20.0,
          "castRangeMin": 10.0,
          "castRangeMax": 20.0,
          "pose": [101, 1101]
        }
      },
      "301": {
        "cd": 15,
        "cdUpperRange": 7.5,
        "skillQueryingTime": 3.5,
        "priority": 4,
        "name": "MultiAtk",
        "stateIDs": ["MultiAtk"],
        "skillGroupCDID": 1,
        "castCondition": {
          "pickRangeMin": 5,
          "pickRangeMax": 12.5,
          "pose": [101, 1101]
        }
      },
      "302": {
        "cd": 15,
        "cdUpperRange": 7.5,
        "skillQueryingTime": 3.5,
        "flagTargetInZone": "10",
        "priority": 4,
        "name": "MultiAtk",
        "stateIDs": ["MultiAtk", "MultiAtk_Rush"],
        "skillGroupCDID": 1,
        "castCondition": {
          "pickRangeMin": 12.5,
          "pickRangeMax": 50,
          "pose": [101, 1101]
        }
      },
      // Elite
      "303": {
        "cd": 30,
        "cdUpperRange": 5.5,
        "initialCD": 5.0,
        "initialCDUpperRange": 3.5,
        "skillQueryingTime": 3.5,
        "priority": 5,
        "flagTargetReachable": "11",
        "name": "MultiAtk",
        "stateIDs": ["MultiAtk"],
        "skillGroupCDID": 1,
        "castCondition": {
          "pickRangeMin": 5,
          "pickRangeMax": 12.5,
          "pose": [101, 1101]
        }
      },
      "304": {
        "cd": 30,
        "cdUpperRange": 5.5,
        "initialCD": 5.0,
        "initialCDUpperRange": 3.5,
        "skillQueryingTime": 3.5,
        "flagTargetInZone": "10",
        "priority": 5,
        "flagTargetReachable": "11",
        "name": "MultiAtk",
        "stateIDs": ["MultiAtk", "MultiAtk_Rush"],
        "skillGroupCDID": 1,
        "castCondition": {
          "pickRangeMin": 12.5,
          "pickRangeMax": 50,
          "pose": [101, 1101]
        }
      },
      "401": {
        "cd": 15,
        "cdUpperRange": 7.5,
        "skillQueryingTime": 3.5,
        "priority": 4,
        "name": "Vortex",
        "stateIDs": ["Vortex"],
        "skillGroupCDID": 2,
        "castCondition": {
          "pickRangeMin": 0,
          "pickRangeMax": 7.5,
          "pose": [101, 1101]
        }
      },
      "402": {
        "cd": 15,
        "cdUpperRange": 7.5,
        "skillQueryingTime": 3.5,
        "flagTargetInZone": "10",
        "priority": 4,
        "name": "Vortex",
        "stateIDs": ["Vortex", "Vortex_Rush"],
        "skillGroupCDID": 2,
        "castCondition": {
          "pickRangeMin": 7.5,
          "pickRangeMax": 50.0,
          "pose": [101, 1101]
        }
      },
      // Elite
      "403": {
        "cd": 60,
        "cdUpperRange": 7.5,
        "initialCD": 15.0,
        "initialCDUpperRange": 3.5,
        "skillQueryingTime": 3.5,
        "priority": 4,
        "flagTargetReachable": "11",
        "name": "Vortex",
        "stateIDs": ["Vortex"],
        "skillGroupCDID": 2,
        "castCondition": {
          "pickRangeMin": 0,
          "pickRangeMax": 7.5,
          "pose": [101, 1101]
        }
      },
      "404": {
        "cd": 60,
        "cdUpperRange": 7.5,
        "initialCD": 15.0,
        "initialCDUpperRange": 3.5,
        "skillQueryingTime": 3.5,
        "flagTargetInZone": "10",
        "priority": 4,
        "flagTargetReachable": "11",
        "name": "Vortex",
        "stateIDs": ["Vortex", "Vortex_Rush"],
        "skillGroupCDID": 2,
        "castCondition": {
          "pickRangeMin": 7.5,
          "pickRangeMax": 50.0,
          "pose": [101, 1101]
        }
      },
      "701": {
        "cd": 30.0,
        "cdUpperRange": 15.0,
        "initialCD": 30,
        "initialCDUpperRange": 10,
        "skillQueryingTime": 3.5,
        "flagTargetReachable": "11",
        "flagSelfInZone": "11",
        "priority": 2,
        "name": "EnergyAbsorb",
        "ignoreGCD": true,
        "stateIDs": ["EnergyAbsorb"],
        "skillGroupCDID": 4,
        "castCondition": {
          "pickRangeMin": 0,
          "pickRangeMax": 70.0,
          "pose": [1101]
        }
      },
      // Elite
      "702": {
        "cd": 100.0,
        "cdUpperRange": 15.0,
        "initialCD": 40,
        "initialCDUpperRange": 10,
        "skillQueryingTime": 3.5,
        "flagTargetReachable": "11",
        "flagSelfInZone": "11",
        "priority": 3,
        "name": "EliteEnergyAbsorb",
        "ignoreGCD": true,
        "stateIDs": ["EliteEnergyAbsorb"],
        "skillGroupCDID": 4,
        "castCondition": {
          "pickRangeMin": 0,
          "pickRangeMax": 70.0,
          "pose": [1101]
        }
      },
      "801": {
        "cd": 60.0,
        "cdUpperRange": 30.0,
        "initialCD": 40,
        "initialCDUpperRange": 15,
        "skillQueryingTime": 3.5,
        "flagTargetReachable": "11",
        "flagSelfInZone": "11",
        "name": "Tornado",
        "ignoreGCD": true,
        "priority": 1,
        "stateIDs": ["Tornado"],
        "skillGroupCDID": 5,
        "castCondition": {
          "pickRangeMin": 0,
          "pickRangeMax": 70.0,
          "pose": [101]
        }
      },
      // Elite
      "802": {
        "cd": 30.0,
        "cdUpperRange": 5.0,
        "initialCD": 20.0,
        "initialCDUpperRange": 7.5,
        "skillQueryingTime": 3.5,
        "flagTargetReachable": "11",
        "flagSelfInZone": "11",
        "name": "Tornado",
        "ignoreGCD": true,
        "priority": 2,
        "stateIDs": ["Tornado"],
        "skillGroupCDID": 5,
        "castCondition": {
          "pickRangeMin": 0,
          "pickRangeMax": 70.0,
          "pose": [101]
        }
      },
      "901": {
        "cd": 15,
        "cdUpperRange": 15.0,
        "initialCD": 15,
        "initialCDUpperRange": 15,
        "skillQueryingTime": 3.5,
        "priority": 4,
        "ignoreGCD": true,
        "flagTargetReachable": "11",
        "flagSelfInZone": "11",
        "name": "WindFall",
        "stateIDs": ["WindFall"],
        "castCondition": {
          "pickRangeMin": 7.5,
          "pickRangeMax": 70.0,
          "pose": [101]
        }
      },
      "902": {
        "cd": 15,
        "cdUpperRange": 15.0,
        "initialCD": 5,
        "initialCDUpperRange": 5,
        "skillQueryingTime": 3.5,
        "priority": 3,
        "ignoreGCD": true,
        "flagTargetReachable": "11",
        "flagSelfInZone": "11",
        "name": "WindFall",
        "stateIDs": ["WindFall"],
        "castCondition": {
          "pickRangeMin": 7.5,
          "pickRangeMax": 70.0,
          "pose": [1101]
        }
      },
      "1001": {
        "cd": 15,
        "cdUpperRange": 15.0,
        "initialCD": 15,
        "initialCDUpperRange": 15,
        "skillQueryingTime": 3.5,
        "priority": 4,
        "flagTargetReachable": "11",
        "flagSelfInZone": "11",
        "name": "AirGun",
        "stateIDs": ["AirGun"],
        "castCondition": {
          "pickRangeMin": 15,
          "pickRangeMax": 70.0,
          "pose": [101, 1101]
        }
      },
      // Elite
      "1002": {
        "cd": 20,
        "cdUpperRange": 10.0,
        "initialCD": 5.0,
        "initialCDUpperRange": 3.5,
        "skillQueryingTime": 3.5,
        "priority": 4,
        "flagTargetReachable": "11",
        "flagSelfInZone": "11",
        "name": "AirGun",
        "stateIDs": ["AirGun"],
        "castCondition": {
          "pickRangeMin": 12.5,
          "pickRangeMax": 70.0,
          "pose": [101, 1101]
        }
      },
      "1101": {
        "cd": 60.0,
        "cdUpperRange": 10.0,
        "initialCD": 60.0,
        "initialCDUpperRange": 10.0,
        "skillQueryingTime": 3.5,
        "flagTargetReachable": "11",
        "flagSelfInZone": "11",
        "name": "WindButterfly",
        "ignoreGCD": true,
        "priority": 3,
        "stateIDs": [
          "WindButterfly",
          "WindButterflyWeak",
          "WindButterflyBlink"
        ],
        "skillGroupCDID": 6,
        "castCondition": {
          "pickRangeMin": 0,
          "pickRangeMax": 70.0,
          "pose": [101, 1101]
        }
      },
      "1201": {
        "cd": 50,
        "cdUpperRange": 10,
        "initialCD": 1.5,
        "initialCDUpperRange": 1.5,
        "skillQueryingTime": 3.5,
        "priority": 1,
        "ignoreGCD": true,
        "flagTargetReachable": "11",
        "flagSelfInZone": "11",
        "name": "EliteWindFall",
        "stateIDs": ["EliteWindFall"],
        "castCondition": {
          "pickRangeMin": 7.5,
          "pickRangeMax": 70.0,
          "pose": [101, 1101]
        }
      }
    }
  },
  "audio": {
    "$type": "ConfigMonsterAudio",
    "animAudio": {
      "onTransitionIn": [
        {
          "currentStateName": "ElectricEscape_BS",
          "audioEvent": {
            "text": "Play_sfx_monster_effigy_electricEscape_BS"
          },
          "otherStateNames": [],
          "usage": "Any"
        },
        {
          "currentStateName": "AirGun_Loop",
          "audioEvent": {
            "text": "Play_sfx_monster_effigy_wind_airgun_circle"
          },
          "otherStateNames": [],
          "usage": "Any"
        },
        {
          "currentStateName": "Storm_Loop1",
          "audioEvent": {
            "text": "Play_sfx_monster_effigy_wind_tornado_loop"
          },
          "otherStateNames": [],
          "usage": "Any"
        },
        {
          "currentStateName": "Storm_Loop2",
          "audioEvent": {
            "text": "Play_sfx_monster_effigy_wind_tornado_loop"
          },
          "otherStateNames": [],
          "usage": "Any"
        }
      ],
      "onTransitionOut": [
        {
          "currentStateName": "ElectricEscape_BS",
          "audioEvent": {
            "text": "Stop_sfx_monster_effigy_electricEscape_BS"
          },
          "otherStateNames": [
            "ElectricEscape_AS",
            "ElectricEscape_Loop1",
            "ElectricEscape_Loop2"
          ],
          "usage": "Except"
        },
        {
          "currentStateName": "Tornado_Loop",
          "audioEvent": {
            "text": "Stop_sfx_monster_effigy_wind_tornado_ground_loop"
          },
          "otherStateNames": [],
          "usage": "Except"
        },
        {
          "currentStateName": "AirGun_Loop",
          "audioEvent": {
            "text": "Stop_sfx_monster_effigy_wind_airgun_circle"
          },
          "otherStateNames": [],
          "usage": "Except"
        },
        {
          "currentStateName": "Storm_Loop1",
          "audioEvent": {
            "text": "Stop_sfx_monster_effigy_wind_tornado_loop"
          },
          "otherStateNames": [],
          "usage": "Except"
        },
        {
          "currentStateName": "Storm_Loop2",
          "audioEvent": {
            "text": "Stop_sfx_monster_effigy_wind_tornado_loop"
          },
          "otherStateNames": [],
          "usage": "Except"
        }
      ]
    }
  }
}
