{
  "$type": "ConfigMonster",
  "common": {
    "effectAttachShape": {
      "$type": "ConfigEffectAttachSkinnedMesh",
      "mesh": "EffectMesh"
    },
    "mass": 100000.0,
    "height": 1.35,
    "modelHeight": 1.7,
    "viewSize": 2.5,
    "affectedByWorld": true,
    "checkInSurface": true,
    "clearAnimatorOnSetLightDeactive": true,
    "clearAIOnSetLightDeactive": true
  },
  "equipController": {
    "attachPoints": {
      "fruit01": "fruit01",
      "fruit02": "fruit02",
      "fruit03": "fruit03"
    },
    "sheathPoint": ""
  },
  "partControl": {
    "parts": [
      {
        "$type": "ConfigControlPart",
        "partRootName": "Fruit01",
        "angularSpeed": 3600.0,
        "forwardBy": "EntityForward",
        "rotateBy": "WorldXZ",
        "doOnUnEabled": "Stay",
        "limitHorizontal": 360.0,
        "limitVertical": 0.0
      },
      {
        "$type": "ConfigControlPart",
        "partRootName": "Fruit02",
        "angularSpeed": 3600.0,
        "forwardBy": "EntityForward",
        "rotateBy": "WorldXZ",
        "doOnUnEabled": "Stay",
        "limitHorizontal": 360.0,
        "limitVertical": 0.0
      },
      {
        "$type": "ConfigControlPart",
        "partRootName": "Fruit03",
        "angularSpeed": 3600.0,
        "forwardBy": "EntityForward",
        "rotateBy": "WorldXZ",
        "doOnUnEabled": "Stay",
        "limitHorizontal": 360.0,
        "limitVertical": 0.0
      }
    ]
  },
  "move": {
    "$type": "ConfigAnimatorMove",
    "monsterSizeType": "StrongHumanoidType",
    "useAll": true,
    // "velocityForce":
    // {
    // 	"includeForces": ["FixedRushMoveType","RushMoveType"],
    // },
    "destroyRockWhenInit": true
  },
  "specialPoint": {
    "elementDrop": "Chest",
    "bulletAim": "LockPointChest",
    "hitPoints": ["LockPointBody", "RootNode", "Chest"],
    "selectedPoints": ["LockPointBody", "RootNode", "Chest"]
  },
  "billboard": {
    "$type": "ConfigCombatBillboard",
    "offsetType": "Normal",
    "offset": {
      "x": 0.0,
      "y": 1.5,
      "z": 0.0
    },
    "showHPBar": true,
    "radiusOffset": 0.2,
    "size": "Normal"
  },
  "cameraAdjustMap": {
    "default": {
      "$type": "ConfigSpecialCamera",
      "priority": 1.0, //优先?
      "enterRadius": 30, //开启大怪相机的人怪距?
      "exitRadius": 35, //脱离大怪相机的人怪距?
      "heightAdjust": 1.45, //相机高度修正
      "fov": 45.0, //相机FOV修正
      "zoom": 8, //相机Z距离修正
      "sphericalY": 10, //初始俯角（游戏种默认?6?
      "lockSphericalY": false, //是否锁定俯仰?
      "sphericalYUp": 79, //始俯? 上修? （最大俯仰角为sphericalY + sphericalYUp?
      "sphericalYDown": 99, //始俯? 下修正（最大俯仰角为sphericalY - sphericalYDown?
      "autoTurnStartMin": 50, //人怪距?1米时，开启视角旋转修正的最小?
      "autoTurnStartMax": 40, //人怪距?15米时，开启视角旋转修正的最大?
      "autoTurnEndMin": 100, //人怪距?1米时，视角旋转修正后的角?
      "autoTurnEndMax": 145, //人怪距?15米时，视角旋转修正后的角?
      "enterShape": "CircleR30",
      "exitShape": "CircleR35",
      "shapeCenterOffset": {
        "x": 0,
        "y": 0,
        "z": 0
      }
    }
  },
  "combat": {
    "property": {
      "weight": 150, //weightLevel = 2
      "endureType": "Monster_Grunt_Humanoid"
    },
    "combatLock": {
      "denyLockOn": false,
      "lockType": "Boss_Lv5"
    },
    "beHit": {
      "hitBloodEffect": "",
      "muteAllHit": false,
      "muteAllHitEffect": false,
      "muteAllHitText": false,
      "ignoreMinHitVY": true,
      "hitAutoRedirect": true
    },
    "die": {
      "hasAnimatorDie": true,
      "dieDisappearEffect": "Eff_Death_Common",
      "dieDisappearEffectDelay": 0.0,
      "dieEndTime": 1.0,
      "dieForceDisappearTime": 1.0,
      "dieShaderData": "MonsterDie",
      "muteHitBox": true,
      "dieDenyLockOn": true,
      "dieIsGhostToEnemy": true,
      "dieIgnoreTriggerBullet": true,
      "muteBillboard": true,
      "mutePushCollider": true
    },
    "animEvents": {
      "DigOutAtk": {
        "attackPattern": {
          "$type": "ConfigAttackCircle",
          "duration": 0.0,
          "triggerType": "TriggerNoRepeat",
          "height": 6.0,
          "fanAngle": 360.0,
          "radius": 6.0,
          "born": {
            "$type": "ConfigBornBySelf",
            "offset": {
              "x": 0.0,
              "y": 0.0,
              "z": 0.0
            }
          }
        },
        "attackInfo": {
          "attackTag": "Mimik_Fel_DigOutAttack",
          "attackProperty": {
            "damagePercentage": 1.0,
            "elementType": "Ice",
            "strikeType": "Blunt",
            "elementDurability": 50,
            "enBreak": 200.0
          },
          "hitPattern": {
            "onHitEffectName": "default",
            "hitImpulseType": "LV5",
            "reboundRatio": 0,
            "hitHaltTime": 0,
            "hitHaltTimeScale": 0.01,
            "muteHitText": false
          },
          "forceCameraShake": true,
          "cameraShake": {
            "shakeType": "CustomVector",
            "shakeRange": 0.12,
            "shakeTime": 0.15,
            "shakeDistance": 25.0,
            "shakeDir": {
              "x": 0,
              "y": -1,
              "z": 0
            }
          }
        }
      },
      "DigOutAtkS": {
        "attackPattern": {
          "$type": "ConfigAttackCircle",
          "duration": 0.0,
          "triggerType": "TriggerNoRepeat",
          "height": 6.0,
          "fanAngle": 360.0,
          "radius": 2.0,
          "born": {
            "$type": "ConfigBornBySelf",
            "offset": {
              "x": 0.0,
              "y": 0.0,
              "z": 0.0
            }
          }
        },
        "attackInfo": {
          "attackTag": "Mimik_Fel_DigOutAttack",
          "attackProperty": {
            "damagePercentage": 1.0,
            "elementType": "Ice",
            "strikeType": "Blunt",
            "elementDurability": 50,
            "enBreak": 200.0
          },
          "hitPattern": {
            "onHitEffectName": "default",
            "hitImpulseType": "LV5",
            "reboundRatio": 0,
            "hitHaltTime": 0,
            "hitHaltTimeScale": 0.01,
            "muteHitText": false
          },
          "forceCameraShake": true,
          "cameraShake": {
            "shakeType": "CustomVector",
            "shakeRange": 0.12,
            "shakeTime": 0.15,
            "shakeDistance": 25.0,
            "shakeDir": {
              "x": 0,
              "y": -1,
              "z": 0
            }
          }
        }
      },
      "Atk02": {
        "attackPattern": {
          "$type": "ConfigAttackCircle",
          "duration": 0.0,
          "triggerType": "TriggerNoRepeat",
          "height": 6.0,
          "fanAngle": 360.0,
          "radius": 8.0,
          "born": {
            "$type": "ConfigBornBySelf",
            "offset": {
              "x": 0.0,
              "y": 0.0,
              "z": 0.0
            }
          }
        },
        "attackInfo": {
          "attackProperty": {
            "damagePercentage": 1.0,
            "elementType": "Ice",
            "strikeType": "Blunt",
            "elementDurability": 50,
            "enBreak": 200.0
          },
          "hitPattern": {
            "onHitEffectName": "default",
            "hitImpulseType": "LV5",
            "reboundRatio": 0,
            "hitHaltTime": 0,
            "hitHaltTimeScale": 0.01,
            "muteHitText": false
          },
          "forceCameraShake": true,
          "cameraShake": {
            "shakeType": "CustomVector",
            "shakeRange": 0.12,
            "shakeTime": 0.15,
            "shakeDistance": 25.0,
            "shakeDir": {
              "x": 0,
              "y": -1,
              "z": 0
            }
          }
        }
      },
      "Atk02S": {
        "attackPattern": {
          "$type": "ConfigAttackCircle",
          "duration": 0.0,
          "triggerType": "TriggerNoRepeat",
          "height": 2.0,
          "fanAngle": 360.0,
          "radius": 7.0,
          "born": {
            "$type": "ConfigBornBySelf",
            "offset": {
              "x": 0.0,
              "y": 0.0,
              "z": 0.0
            }
          }
        },
        "attackInfo": {
          "attackProperty": {
            "damagePercentage": 1.0,
            "elementType": "Ice",
            "strikeType": "Blunt",
            "elementDurability": 50,
            "enBreak": 200.0
          },
          "hitPattern": {
            "onHitEffectName": "default",
            "hitImpulseType": "LV5",
            "reboundRatio": 0,
            "hitHaltTime": 0,
            "hitHaltTimeScale": 0.01,
            "muteHitText": false
          },
          "forceCameraShake": true,
          "cameraShake": {
            "shakeType": "CustomVector",
            "shakeRange": 0.12,
            "shakeTime": 0.15,
            "shakeDistance": 25.0,
            "shakeDir": {
              "x": 0,
              "y": -1,
              "z": 0
            }
          }
        }
      }
    }
  },
  "inputKeys": [
    {
      "keyID": 201,
      "inputKeyCode": 257
    },
    {
      "keyID": 202,
      "inputKeyCode": 258
    },
    {
      "keyID": 205,
      "inputKeyCode": 259
    },
    {
      "keyID": 204,
      "inputKeyCode": 260
    },
    {
      "keyID": 301,
      "inputKeyCode": 261
    },
    {
      "keyID": 701,
      "inputKeyCode": 262
    },
    {
      "keyID": 401,
      "inputKeyCode": 263
    },
    {
      "keyID": 402,
      "inputKeyCode": 264
    },
    {
      "keyID": 404,
      "inputKeyCode": 265
    },
    {
      "keyID": 405,
      "inputKeyCode": 266
    }
  ],
  "stateLayers": {
    "defaultLayer": {
      "$type": "ConfigNormalStateLayer",
      "stateIDs": {
        //////////////////////////////////////////////////
        //	Idle & Move states
        //////////////////////////////////////////////////
        "Born": {
          "$type": "ConfigMonsterStateIDInfo",
          "animatorStates": {
            "Born": [""],
            "Born_AS01": [
              "Monster_Mimik_Fel_Born",
              "Audio_Monster_Mimik_Fel_Born_AS"
            ],
            "Born_AS02": ["Monster_Mimik_Fel_Born_AS"]
          },
          "addEndure": 1.0,
          "combatMove": true,
          "canDoSkill": true,
          "canSyncMove": true,
          "cullingModelAlwaysAnimate": true,
          "resetAnimatorTriggerOnExit": ["DoSkill"]
        },
        "NormalIdle": {
          "$type": "ConfigMonsterStateIDInfo",
          "animatorStates": {
            "Standby": [],
            "ShrinkedStandby": []
          },
          "addEndure": 1.0,
          "combatMove": true,
          "canDoSkill": true,
          "canSyncMove": true,
          "canSteer": true,
          // "autoSteer": true,
          "resetAnimatorTriggerOnExit": ["DoSkill"]
        },
        "DigInAttack": {
          "$type": "ConfigMonsterStateIDInfo",
          "animatorStates": {
            "DigInAttack_BS": [
              "Monster_Mimik_Fel_Giant_UnderGround_DigIn",
              "Audio_Monster_Mimik_Fel_DigAttack_BS",
              "",
              ""
            ],
            "DigInAttack_Delay": [
              "Monster_Mimik_Fel_DigInChase",
              "Monster_Mimik_Fel_Giant_DigOut_Wait"
            ],
            "DigInAttack_Attack": [
              "Monster_Mimik_Fel_Giant_DigOutAttack",
              "Audio_Monster_Mimik_Fel_DigAttack_Attack"
            ]
          },
          "addEndure": 0.05,
          "combatMove": true,
          "canDoSkill": false,
          "canSteer": true,
          "canSyncMove": true,
          "cullingModelAlwaysAnimate": true,
          "resetAnimatorTriggerOnExit": ["DoSkill", "DigInFarTrigger"]
        },
        "DigInAttack_Shrink": {
          "$type": "ConfigMonsterStateIDInfo",
          "animatorStates": {
            "DigInAttack_Shrink_BS": [
              "Monster_Mimik_Fel_Shrinked_UnderGround_DigIn",
              "Audio_Monster_Mimik_Fel_DigAttack_BS",
              "",
              ""
            ],
            "DigInAttack_Shrink_Delay": [
              "Monster_Mimik_Fel_DigInChase",
              "Monster_Mimik_Fel_Shrinked_DigOut_Wait"
            ],
            "DigInAttack_Shrink_Attack": [
              "Monster_Mimik_Fel_Shrinked_DigOutAttack",
              "Audio_Monster_Mimik_Fel_DigAttack_Attack"
            ]
          },
          "addEndure": 0.05,
          "combatMove": true,
          "canDoSkill": false,
          "canSteer": true,
          "canSyncMove": true,
          "cullingModelAlwaysAnimate": true,
          "resetAnimatorTriggerOnExit": ["DoSkill", "DigInFarTrigger"]
        },
        //////////////////////////////////////////////////
        //	Hit & Die states
        //////////////////////////////////////////////////
        "BeHit": {
          "$type": "ConfigMonsterStateIDInfo",
          "animatorStates": {
            "Hit_H": [""]
          },
          "canDoSkill": true,
          "addEndure": 1.0,
          "combatMove": true,
          "resetAnimatorTriggerOnEnter": ["BeHit", "DigInFarTrigger"],
          "resetAnimatorTriggerOnExit": ["DoSkill", "InterruptTrigger"]
        },
        "BeHitThrow": {
          "$type": "ConfigMonsterStateIDInfo",
          "animatorStates": {
            "HitThrow": ["Monster_Mimik_HitThrow"],
            "HitThrowDrop": [],
            "HitThrowToGround": [
              "Monster_Mimik_HitThrowToGround",
              "Audio_Monster_Mimik_Fel_HitThrowToGround"
            ]
          },
          "addEndure": 0.05,
          "combatMove": true,
          "resetAnimatorTriggerOnEnter": ["BeHit", "HitAir2HitDrop"],
          "resetAnimatorTriggerOnExit": ["DoSkill", "InterruptTrigger"]
        },
        "Struggle": {
          "$type": "ConfigMonsterStateIDInfo",
          "animatorStates": {
            "Struggle": []
          },
          "combatMove": true,
          "resetAnimatorTriggerOnEnter": ["BeHit", "HitAir2HitDrop"],
          "resetAnimatorTriggerOnExit": ["DoSkill", "InterruptTrigger"]
        },
        "Die": {
          "$type": "ConfigMonsterStateIDInfo",
          "animatorStates": {
            "Die1": ["Audio_Monster_Mimik_Fel_Die"],
            "Die2": ["Audio_Monster_Mimik_Fel_Die"],
            "FallingDie": ["Audio_Monster_Mimik_Fel_Die"],
            "SwimDie": ["Audio_Monster_Mimik_Fel_Die"],
            "AirDie": ["Audio_Monster_Mimik_Fel_Die"]
          },
          "cullingModelAlwaysAnimate": true
        },
        //////////////////////////////////////////////////
        //	Alert states
        //////////////////////////////////////////////////
        "Life_Warning": {
          "$type": "ConfigMonsterStateIDInfo",
          "animatorStates": {
            "Alert": [""],
            "Warning": [""]
          },
          "canSteer": true,
          "combatMove": true,
          "addEndure": 0.0,
          "cullingModelAlwaysAnimate": true,
          "resetAnimatorTriggerOnExit": ["BeHit", "DoSkill"]
        },
        //////////////////////////////////////////////////
        //	Attack states
        //////////////////////////////////////////////////
        "SnowBall_BS": {
          "$type": "ConfigMonsterStateIDInfo",
          "animatorStates": {
            "SnowBall_BS": ["Audio_Monster_Mimik_Fel_Giant_SnowBall_BS", ""]
          },
          "addEndure": 0.75,
          "canSteer": true,
          "combatMove": true,
          "resetAnimatorTriggerOnExit": ["BeHit", "DoSkill"]
        },
        "SnowBall_Shoot": {
          "$type": "ConfigMonsterStateIDInfo",
          "animatorStates": {
            "SnowBall_Shoot": [
              "Monster_Mimik_Fel_SnowBall",
              "Audio_Monster_Mimik_Fel_Giant_SnowBall_Shoot"
            ]
          },
          "addEndure": 0.75,
          "canSteer": true,
          "combatMove": true,
          "resetAnimatorTriggerOnExit": ["BeHit", "DoSkill"]
        },
        "SnowBall_AS": {
          "$type": "ConfigMonsterStateIDInfo",
          "animatorStates": {
            "SnowBall_AS": ["Audio_Monster_Mimik_Fel_Giant_SnowBall_AS"]
          },
          "addEndure": 0.75,
          "canSteer": true,
          "combatMove": true,
          "resetAnimatorTriggerOnExit": ["BeHit", "DoSkill"]
        },
        "MeleeAttack01_BS": {
          "$type": "ConfigMonsterStateIDInfo",
          "animatorStates": {
            "MeleeAttack01_BS": [
              "Monster_Mimik_Fel_Giant_MeleeAttack01_BS",
              "Audio_Monster_Mimik_Fel_MeleeAttack_Shrink_BS"
            ]
          },
          "addEndure": 0.75,
          "combatMove": true,
          "resetAnimatorTriggerOnExit": ["BeHit", "DoSkill"]
        },
        "MeleeAttack01_AS": {
          "$type": "ConfigMonsterStateIDInfo",
          "animatorStates": {
            "MeleeAttack01_AS": [
              "Monster_Mimik_Fel_Giant_MeleeAttack01_AS",
              "Audio_Monster_Mimik_Fel_MeleeAttack_BS"
            ]
          },
          "addEndure": 0.75,
          "combatMove": true,
          "resetAnimatorTriggerOnExit": ["BeHit", "DoSkill"]
        },
        "MeleeAttack01_Shrink_BS": {
          "$type": "ConfigMonsterStateIDInfo",
          "animatorStates": {
            "MeleeAttack01_Shrink_BS": [
              "Monster_Mimik_Fel_Shrink_MeleeAttack01_BS",
              "Audio_Monster_Mimik_Fel_MeleeAttack_Shrink_BS"
            ]
          },
          "addEndure": 0.75,
          "combatMove": true,
          "resetAnimatorTriggerOnExit": ["BeHit", "DoSkill"]
        },
        "MeleeAttack01_Shrink_AS": {
          "$type": "ConfigMonsterStateIDInfo",
          "animatorStates": {
            "MeleeAttack01_Shrink_AS": [
              "Monster_Mimik_Fel_Shrink_MeleeAttack01_AS",
              "Audio_Monster_Mimik_Fel_MeleeAttack_Shrink_AS"
            ]
          },
          "addEndure": 0.75,
          "combatMove": true,
          "resetAnimatorTriggerOnExit": ["BeHit", "DoSkill"]
        },
        //////////////////////////////////////////////////
        //	SummonFruit states
        //////////////////////////////////////////////////
        "SummonFruit": {
          "$type": "ConfigMonsterStateIDInfo",
          "animatorStates": {
            "Summon": [
              "Monster_Mimik_Fel_Summon",
              "Audio_Monster_Mimik_Fel_Giant_Summon"
            ]
          },
          "addEndure": 0.05,
          "combatMove": true,
          "resetAnimatorTriggerOnExit": ["BeHit", "DoSkill"]
        },
        "SummonFruit_Shrink": {
          "$type": "ConfigMonsterStateIDInfo",
          "animatorStates": {
            "Summon_Shrink": ["Audio_Monster_Mimik_Fel_Giant_Summon"]
          },
          "addEndure": 0.05,
          "combatMove": true,
          "resetAnimatorTriggerOnExit": ["BeHit", "DoSkill"]
        },
        //////////////////////////////////////////////////
        //	Fruit Attack states
        //////////////////////////////////////////////////
        "AbsorbFruit": {
          "$type": "ConfigMonsterStateIDInfo",
          "animatorStates": {
            "AbsorbFruit_BS": [
              "Monster_Mimik_Fel_AbsorbFruit_BS",
              "Audio_Monster_Mimik_Fel_AbsorbFruit_BS"
            ],
            "AbsorbFruit_AS": [
              "Monster_Mimik_Fel_AbsorbFruit_AS",
              "Audio_Monster_Mimik_Fel_AbsorbFruit_AS"
            ]
          },
          "addEndure": 0.05,
          "combatMove": true,
          "resetAnimatorTriggerOnExit": ["BeHit", "DoSkill"]
        },
        "AbsorbFruit_Loop": {
          "$type": "ConfigMonsterStateIDInfo",
          "animatorStates": {
            "AbsorbFruit_Loop": []
          },
          "addEndure": 0.05,
          "combatMove": true,
          "resetAnimatorTriggerOnExit": ["BeHit", "DoSkill"]
        },
        "ForwardShoot02": {
          "$type": "ConfigMonsterStateIDInfo",
          "animatorStates": {
            "ForwardShoot02_BS": [
              "Audio_Monster_Mimik_Fel_Giant_ForwardShoot02_BS"
            ],
            "ForwardShoot02_Shoot": [
              "Monster_Mimik_Fel_ForwardShoot",
              "Audio_Monster_Mimik_Fel_Giant_ForwardShoot02_Shoot"
            ],
            "ForwardShoot02_AS": [
              "Audio_Monster_Mimik_Fel_Giant_ForwardShoot02_AS"
            ]
          },
          "addEndure": 0.05,
          "combatMove": true,
          "resetAnimatorTriggerOnExit": ["BeHit", "DoSkill"]
        },
        "UpperShoot01": {
          "$type": "ConfigMonsterStateIDInfo",
          "animatorStates": {
            "UpperShoot01_BS": [
              "Audio_Monster_Mimik_Fel_Giant_UpperShoot01_BS"
            ],
            "UpperShoot01_Shoot": [
              "Monster_Mimik_Fel_UpperShoot",
              "Audio_Monster_Mimik_Fel_Giant_UpperShoot01_Shoot"
            ],
            "UpperShoot01_AS": ["Audio_Monster_Mimik_Fel_Giant_UpperShoot01_AS"]
          },
          "addEndure": 0.05,
          "combatMove": true,
          "resetAnimatorTriggerOnExit": ["BeHit", "DoSkill"]
        },
        "ForwardShoot01_Shrink": {
          "$type": "ConfigMonsterStateIDInfo",
          "animatorStates": {
            "ForwardShoot01_Shrink_BS": [
              "Audio_Monster_Mimik_Fel_Shrink_ForwardShoot01_BS"
            ],
            "ForwardShoot01_Shrink_Shoot": [
              "Monster_Mimik_Fel_Shrink_ForwardShoot",
              "Audio_Monster_Mimik_Fel_Shrink_ForwardShoot01_Shoot"
            ],
            "ForwardShoot01_Shrink_AS": [
              "Audio_Monster_Mimik_Fel_Shrink_ForwardShoot01_AS"
            ]
          },
          "addEndure": 0.05,
          "combatMove": true,
          "resetAnimatorTriggerOnExit": ["BeHit", "DoSkill"]
        },
        "UpperShoot02_Shrink": {
          "$type": "ConfigMonsterStateIDInfo",
          "animatorStates": {
            "UpperShoot02_Shrink_BS": [
              "Audio_Monster_Mimik_Fel_Shrink_UpperShoot02_BS"
            ],
            "UpperShoot02_Shrink_Shoot": [
              "Monster_Mimik_Fel_Shrink_UpperShoot",
              "Audio_Monster_Mimik_Fel_Shrink_UpperShoot02_Shoot"
            ],
            "UpperShoot02_Shrink_AS": [
              "Audio_Monster_Mimik_Fel_Shrink_UpperShoot02_AS"
            ]
          },
          "addEndure": 0.05,
          "combatMove": true,
          "resetAnimatorTriggerOnExit": ["BeHit", "DoSkill"]
        },
        //////////////////////////////////////////////////
        //	Down states
        //////////////////////////////////////////////////
        "Down": {
          "$type": "ConfigMonsterStateIDInfo",
          "animatorStates": {
            "Down_BS": [
              "Monster_Mimik_Ice_AbsorbFruit_Break",
              "Audio_Monster_Mimik_Fel_Giant_Down_BS",
              "Audio_Monster_Mimik_Fel_Giant_Shrink"
            ],
            "Down_Loop": [],
            "Down_AS": ["Audio_Monster_Mimik_Fel_Giant_Down_AS"],
            "ShrinkedDown_BS": ["Audio_Monster_Mimik_Fel_Shrink_Down_BS"],
            "ShrinkedDown_AS": ["Audio_Monster_Mimik_Fel_Shrink_Down_AS"]
          },
          "addEndure": 10.0,
          "combatMove": true,
          "canDoSkill": false,
          "canSyncMove": true,
          "resetAnimatorTriggerOnEnter": ["BreakTrigger"],
          "resetAnimatorTriggerOnExit": ["DoSkill", "BreakTrigger"]
        },
        "Break": {
          "$type": "ConfigMonsterStateIDInfo",
          "animatorStates": {
            "Break_BS": ["Audio_Monster_Mimik_Fel_Giant_Down_BS", ""],
            "Break_Loop": ["", ""],
            "Break_AS": ["Audio_Monster_Mimik_Fel_Giant_Down_AS", ""]
          },
          "addEndure": 10.0,
          "combatMove": true,
          "canDoSkill": false,
          "canSyncMove": true,
          "resetAnimatorTriggerOnExit": ["DoSkill", "BreakTrigger"]
        },
        "Shrink": {
          "$type": "ConfigMonsterStateIDInfo",
          "animatorStates": {
            "Shrink": ["Audio_Monster_Mimik_Fel_Giant_Shrink", ""]
          },
          "addEndure": 10.0,
          "combatMove": true,
          "canDoSkill": false,
          "canSyncMove": true,
          "resetAnimatorTriggerOnExit": ["DoSkill"]
        },
        "Move": {
          "$type": "ConfigMonsterStateIDInfo",
          "animatorStates": {
            "Move_BS": ["Audio_Monster_Mimik_Fel_Giant_Move_BS", ""],
            "Move_BS02": ["Audio_Monster_Mimik_Fel_Giant_Move_BS", ""],
            "Move_Loop": ["", ""],
            "Move_AS": ["Audio_Monster_Mimik_Fel_Giant_Move_AS", ""]
          },
          "addEndure": 10.0,
          "combatMove": true,
          "canDoSkill": false,
          "canSyncMove": true,
          "resetAnimatorTriggerOnExit": ["DoSkill", "MoveTrigger"]
        },
        //////////////////////////////////////////////////
        //	ReturnToBorn states
        //////////////////////////////////////////////////
        "ReturnToBorn": {
          "$type": "ConfigMonsterStateIDInfo",
          "animatorStates": {
            "ReturnToBorn": [
              "Monster_Mimik_Ice_ReturnToBorn",
              "Monster_Mimik_UnderGround_DigIn",
              "Audio_Monster_Mimik_Fel_Giant_RecoverFruits"
            ],
            "ReturnToBorn_AS_Wait": ["Monster_Mimik_Fel_DigOut_Wait"],
            "ReturnToBorn_AS": [
              "Monster_Mimik_DigOutEffect",
              "Monster_Mimik_UnderGround_DigOut",
              ""
            ]
          },
          "combatMove": true,
          "cullingModelAlwaysAnimate": true,
          "resetAnimatorTriggerOnExit": ["BeHit", "DoSkill"]
        },
        //////////////////////////////////////////////////
        //	RecoverFruit states
        //////////////////////////////////////////////////
        "RecoverFruit": {
          "$type": "ConfigMonsterStateIDInfo",
          "animatorStates": {
            "RecoverFruits_Giant": [
              "Monster_Mimik_Fel_RecoverFruits_Giant",
              "Audio_Monster_Mimik_Fel_Giant_RecoverFruits"
            ]
          },
          "combatMove": true,
          "cullingModelAlwaysAnimate": true,
          "resetAnimatorTriggerOnExit": ["BeHit", "DoSkill"]
        }
      }
    }
  },
  "abilities": [
    //////////////////////////////////////////////////
    //	Core Logic abilities
    //////////////////////////////////////////////////
    {
      "abilityName": "Monster_Mimik_Fel_Giant_GiantStateManager"
    },
    {
      "abilityName": "Mimik_Fel_RecoverGiantStateShield"
    },
    //////////////////////////////////////////////////
    //	FruitManagement abilities
    //////////////////////////////////////////////////
    {
      "abilityName": "Monster_Mimik_Fel_FruitManager"
    },
    {
      "abilityName": "Monster_Mimik_ReduceFruit"
    },
    {
      "abilityName": "Monster_Mimik_Add3Fruit"
    },
    {
      "abilityName": "Mimik_Ice_AbsorbFruit_DoFruitMoveEffect"
    },
    //////////////////////////////////////////////////
    //	FruitPartControl abilities
    //////////////////////////////////////////////////
    {
      "abilityName": "Monster_Mimik_FruitPartControl"
    },
    {
      "abilityName": "Mimik_Ice_AbsorbFruit_DoFruitMoveEffect"
    },
    //////////////////////////////////////////////////
    //	Fruit abilities
    //////////////////////////////////////////////////
    {
      "abilityName": "Mimik_Fel_CountAvatar"
    },
    {
      "abilityName": "Mimik_Fel_SummonFruit"
    },
    //////////////////////////////////////////////////
    //	DigMove abilities
    //////////////////////////////////////////////////
    {
      "abilityName": "Monster_Mimik_Underground"
    },
    {
      "abilityName": "Monster_Mimik_RemoveUnderground"
    },
    {
      "abilityName": "Monster_Mimik_GetDigOutPosChase"
    },
    {
      "abilityName": "Monster_Mimik_GetDigOutPosRandom"
    },
    {
      "abilityName": "Monster_Mimik_BlinkToDigOutPos"
    },
    //////////////////////////////////////////////////
    //	Retreat abilities
    //////////////////////////////////////////////////
    //////////////////////////////////////////////////
    //	Other abilities
    //////////////////////////////////////////////////
    {
      "abilityName": "Monster_Mimik_Fel_SteerAttack"
    },
    {
      "abilityName": "Mimik_Fel_FireSnowBall"
    },
    {
      "abilityName": "Monster_Mimik_Fel_UpperBullet"
    },
    {
      "abilityName": "Monster_Mimik_Fel_Shrink_FireUpperBullet"
    },
    {
      "abilityName": "Monster_Mimik_Fel_Shrink_FireForwardBullet"
    },
    {
      "abilityName": "Monster_Mimik_Fel_Move"
    },
    {
      "abilityName": "Mimik_Fel_Giant_FireForwardBullet"
    },
    {
      "abilityName": "Monster_Mimik_Fel_Watcher"
    }
  ],
  "initialPoses": {
    "Default": {
      "initialPoseID": 0
    },
    "BornAboveGround": {
      "initialPoseID": 2,
      "initialPoseParams": {
        "boolParams": {
          "BornAboveGround": "true"
        }
      }
    }
  },
  "aibeta": {
    "enable": true,
    "skillGCD": 0.5,
    "neurons": {
      "DefaultSetting": ["HIT"]
    },
    "sensing": {
      "settings": {
        "DefaultSetting": {
          "viewRange": 30.0,
          "feelRange": 25.0
        },
        "Sacrifice": {
          "viewRange": 10.0,
          "feelRange": 5.0
        }
      }
    },
    "defendArea": {
      "defendRange": 40.0
    },
    "threat": {
      "clearThreatTargetDistance": 50.0,
      "clearThreatTimerByDistance": 1.5,
      "clearThreatEdgeDistance": 7.5,
      "viewThreatGrow": 1000.0,
      "feelThreatGrow": 1000.0,
      "threatDecreaseSpeed": 10.0,
      "resistTauntLevel": "Monster_TauntLevel_4"
    },
    "returnToBornTactic": {
      "enable": true,
      "defaultSetting": {
        "speedLevel": 0,
        "fadeoutBeginTime": 1.0,
        "fadeoutEndTime": 4.5
      }
    },
    "followScriptedPathTactic": {
      "enable": false,
      "defaultSetting": {
        "turnSpeedOverrideWalk": 0.5,
        "turnSpeedOverrideRun": 0.5
      }
    },
    "wanderTactic": {
      "enable": false,
      "condition": {
        "pose": [100, 300]
      },
      "defaultSetting": {
        "speedLevel": 1,
        "turnSpeedOverride": 0.2,
        "cdMin": 0.0,
        "cdMax": 0.0,
        "distanceFromBorn": 25.0,
        "distanceFromCurrentMin": 7.5,
        "distanceFromCurrentMax": 10.0
      }
    },
    "skillGroupCDConfigs": [
      {
        //Melee
        "skillGroupCDID": 1,
        "skillGroupCDTime": 0.0
      },
      {
        //Ranged
        "skillGroupCDID": 2,
        "skillGroupCDTime": 10.0
      }
    ],
    "network": {
      "syncSkill": true
    },
    "skills": {
      //////////////////////////////////////////////////
      //	Alert Skills
      //////////////////////////////////////////////////
      // "102":
      // {
      // 	"name": "OnAlert",
      // 	"stateIDs": ["Life_Warning"],
      // 	"skillType": "OnAlert",
      // 	"skillQueryingTime": 3,
      // 	"triggerGCD": false,
      // 	"ignoreGCD": true,
      // 	"faceTarget": false,
      // },
      //////////////////////////////////////////////////
      //	Attack Skills 201 ~ 299
      //////////////////////////////////////////////////
      "201": {
        //RangedAttack01
        //SnowBall
        "priority": 5,
        "cd": 20.0,
        "cdUpperRange": 0.0,
        "initialCD": 10.0,
        "triggerGCD": false,
        "ignoreGCD": true,
        "flagTargetReachable": "11",
        "combatSkillType": "RangedAttack",
        "name": "SnowBall",
        "stateIDs": ["SnowBall_BS", "SnowBall_Shoot", "SnowBall_AS"],
        "castCondition": {
          "pose": [1010],
          "SkillAnchorRangeMin": 0.0,
          "SkillAnchorRangeMax": 20.0,
          "pickRangeMin": 9.0,
          "pickRangeMax": 50.0,
          "castRangeMin": 9.0,
          "castRangeMax": 50.0,
          "needReInitCD": true
        }
      },
      "202": {
        //MeleeAttack01
        //TornadoAttack
        "priority": 5,
        "cd": 10.0,
        "cdUpperRange": 0.0,
        "initialCD": 5.0,
        "triggerGCD": false,
        "ignoreGCD": true,
        "flagTargetReachable": "11",
        "combatSkillType": "RangedAttack",
        "name": "MeleeAttack01",
        "stateIDs": ["MeleeAttack01_BS", "MeleeAttack01_AS"],
        "castCondition": {
          "pose": [1010],
          "SkillAnchorRangeMin": 0.0,
          "SkillAnchorRangeMax": 20.0,
          "pickRangeMin": 0.0,
          "pickRangeMax": 9.0,
          "castRangeMin": 0.0,
          "castRangeMax": 9.0,
          "needReInitCD": true
        }
      },
      // "203":
      // {
      // 	//MeleeAttack02
      // 	//DigOutAttack
      // 	"priority": 5,
      // 	"cd": 20.0,
      // 	"cdUpperRange": 0.0,
      // 	"initialCD": 10.0,
      // 	"triggerGCD": false,
      // 	"ignoreGCD": true,
      // 	"flagTargetReachable": "11",
      // 	"combatSkillType": "RangedAttack",
      // 	"name": "DigInAttack",
      // 	"stateIDs": ["DigInAttack"],
      // 	"castCondition":
      // 	{
      // 		"pose": [1010],
      // 		"SkillAnchorRangeMin": 0.0,
      // 		"SkillAnchorRangeMax": 12.5,
      // 		"pickRangeMin": 5.0,
      // 		"pickRangeMax": 50.0,
      // 		"castRangeMin": 5.0,
      // 		"castRangeMax": 50.0,
      // 		"needReInitCD": true,
      // 	},
      // },
      "204": {
        //MeleeAttack02
        //DigOutAttack
        "priority": 5,
        "cd": 60.0,
        "cdUpperRange": 0.0,
        "initialCD": 60.0,
        "triggerGCD": false,
        "ignoreGCD": true,
        "flagTargetReachable": "11",
        "combatSkillType": "RangedAttack",
        "name": "FruitAttack",
        "stateIDs": [
          "AbsorbFruit",
          "AbsorbFruit_Loop",
          "ForwardShoot02",
          "UpperShoot01"
        ],
        "castCondition": {
          "pose": [1010],
          "SkillAnchorRangeMin": 0.0,
          "SkillAnchorRangeMax": 20.0,
          "needReInitCD": false
        }
      },
      "205": {
        //MeleeAttack02
        //DigOutAttack
        "priority": 5,
        "cd": 20.0,
        "cdUpperRange": 0.0,
        "initialCD": 25.0,
        "triggerGCD": false,
        "ignoreGCD": true,
        "flagTargetReachable": "11",
        "combatSkillType": "RangedAttack",
        "name": "UpperShoot",
        "stateIDs": ["UpperShoot01"],
        "castCondition": {
          "pose": [1010],
          "SkillAnchorRangeMin": 0.0,
          "SkillAnchorRangeMax": 20.0,
          "needReInitCD": true
        }
      },
      //////////////////////////////////////////////////
      //	Summon Skills 301 ~ 399
      //////////////////////////////////////////////////
      "301": {
        //Summon Fruit 01
        //FallingAttack
        "priority": 5,
        "cd": 19.5,
        "cdUpperRange": 0.0,
        "initialCD": 1.0,
        "triggerGCD": false,
        "ignoreGCD": true,
        "triggerCDOnStart": true,
        "triggerCDOnFail": true,
        "flagTargetReachable": "11",
        "combatSkillType": "RangedAttack",
        "name": "SummonFruit",
        "stateIDs": ["SummonFruit"],
        "castCondition": {
          "pose": [1010]
        }
      },
      //////////////////////////////////////////////////
      //	Shrink Skills 401 ~ 499
      //////////////////////////////////////////////////
      "401": {
        //ForwardShoot01_Shrink
        "priority": 5,
        "cd": 15.0,
        "cdUpperRange": 0.0,
        "initialCD": 1.0,
        "triggerGCD": false,
        "ignoreGCD": true,
        "flagTargetReachable": "11",
        "combatSkillType": "RangedAttack",
        "name": "ForwardShoot01_Shrink",
        "stateIDs": ["ForwardShoot01_Shrink"],
        "castCondition": {
          "pose": [1020],
          "pickRangeMin": 0.0,
          "pickRangeMax": 50.0,
          "castRangeMin": 0.0,
          "castRangeMax": 50.0
        }
      },
      "402": {
        //UpperShoot02_Shrink
        "priority": 5,
        "cd": 15.0,
        "cdUpperRange": 0.0,
        "initialCD": 1.0,
        "triggerGCD": false,
        "ignoreGCD": true,
        "flagTargetReachable": "11",
        "combatSkillType": "RangedAttack",
        "name": "UpperShoot02_Shrink",
        "stateIDs": ["UpperShoot02_Shrink"],
        "castCondition": {
          "pose": [1020],
          "pickRangeMin": 0.0,
          "pickRangeMax": 50.0,
          "castRangeMin": 0.0,
          "castRangeMax": 50.0
        }
      },
      // "403":
      // {
      // 	//SummonFruitAttack_Shrink
      // 	"priority": 5,
      // 	"cd": 15.0,
      // 	"cdUpperRange": 0.0,
      // 	"initialCD": 1.0,
      // 	"triggerGCD": false,
      // 	"ignoreGCD": true,
      // 	"flagTargetReachable": "11",
      // 	"combatSkillType": "RangedAttack",
      // 	"name": "SummonFruitAttack_Shrink",
      // 	"stateIDs": ["SummonFruit_Shrink"],
      // 	"castCondition":
      // 	{
      // 		"pose": [1020],
      // 		"pickRangeMin": 0.0,
      // 		"pickRangeMax": 50.0,
      // 		"castRangeMin": 0.0,
      // 		"castRangeMax": 50.0,
      // 	},
      // },
      "404": {
        //MeleeAttack_Shrink
        "priority": 5,
        "cd": 15.0,
        "cdUpperRange": 0.0,
        "initialCD": 1.0,
        "triggerGCD": false,
        "ignoreGCD": true,
        "flagTargetReachable": "11",
        "combatSkillType": "RangedAttack",
        "name": "MeleeAttack_Shrink",
        "stateIDs": ["MeleeAttack01_Shrink_BS", "MeleeAttack01_Shrink_AS"],
        "castCondition": {
          "pose": [1020],
          "pickRangeMin": 0.0,
          "pickRangeMax": 5.0,
          "castRangeMin": 0.0,
          "castRangeMax": 7.0
        }
      },
      "405": {
        //DigOutAttack_Shrink
        "priority": 5,
        "cd": 15.0,
        "cdUpperRange": 0.0,
        "initialCD": 1.0,
        "triggerGCD": false,
        "ignoreGCD": true,
        "flagTargetReachable": "11",
        "combatSkillType": "RangedAttack",
        "name": "DigOutAttack_Shrink",
        "stateIDs": ["DigInAttack_Shrink"],
        "castCondition": {
          "pose": [1020],
          "pickRangeMin": 0.0,
          "pickRangeMax": 50.0,
          "castRangeMin": 0.0,
          "castRangeMax": 50.0,
          "needReInitCD": true
        }
      },
      //////////////////////////////////////////////////
      //	FruitReborn Skills 601 ~ 699
      //////////////////////////////////////////////////
      "601": {
        //FruitReborn_Giant
        "priority": 5,
        "cd": 0.0,
        "cdUpperRange": 0.0,
        "initialCD": 0.0,
        "triggerGCD": false,
        "ignoreGCD": true,
        "flagTargetReachable": "11",
        "combatSkillType": "Unclassified",
        "name": "RecoverFruits_Giant",
        "stateIDs": ["RecoverFruit"],
        "castCondition": {
          "pose": [1012],
          "needReInitCD": true
        }
      },
      //////////////////////////////////////////////////
      //	Other Skills 701 ~ 799
      //////////////////////////////////////////////////
      "701": {
        //FruitReborn_Giant
        "priority": 5,
        "cd": 2.0,
        "cdUpperRange": 0.0,
        "initialCD": 2.0,
        "triggerGCD": false,
        "ignoreGCD": true,
        "flagTargetReachable": "11",
        "combatSkillType": "Unclassified",
        "name": "MoveSkill",
        "stateIDs": ["Move"],
        "castCondition": {
          "pose": [1010, 1012],
          "SkillAnchorRangeMin": 5.0,
          "SkillAnchorRangeMax": 999.0,
          "needReInitCD": true
        }
      }
    }
  },
  "audio": {
    "$type": "ConfigMonsterAudio",
    "animAudio": {
      "onTransitionOut": [
        {
          "currentStateName": "ForwardShoot01_Shoot",
          "audioEvent": {
            "text": "Stop_sfx_monster_mimik_ice_forwardShoot_01_shoot"
          },
          "otherStateNames": [],
          "usage": "Any"
        },
        {
          "currentStateName": "AbsorbFruit_Loop",
          "audioEvent": {
            "text": "Stop_sfx_monster_mimik_ice_absorbFruit"
          },
          "otherStateNames": [],
          "usage": "Any"
        },
        {
          "currentStateName": "Break_Loop",
          "audioEvent": {
            "text": "Stop_sfx_monster_mimik_fel_giant_down_Loop"
          },
          "otherStateNames": [],
          "usage": "Any"
        },
        {
          "currentStateName": "Down_Loop",
          "audioEvent": {
            "text": "Stop_sfx_monster_mimik_fel_giant_down_Loop"
          },
          "otherStateNames": [],
          "usage": "Any"
        }
      ],
      "onTransitionIn": [
        {
          "currentStateName": "ForwardShoot01_Shoot",
          "audioEvent": {
            "text": "Play_sfx_monster_mimik_ice_forwardShoot_01_shoot"
          },
          "otherStateNames": [],
          "usage": "Any"
        },
        {
          "currentStateName": "AbsorbFruit_Loop",
          "audioEvent": {
            "text": "Play_sfx_monster_mimik_ice_absorbFruit"
          },
          "otherStateNames": [],
          "usage": "Any"
        },
        {
          "currentStateName": "Break_Loop",
          "audioEvent": {
            "text": "Play_sfx_monster_mimik_fel_giant_down_Loop"
          },
          "otherStateNames": [],
          "usage": "Any"
        },
        {
          "currentStateName": "Down_Loop",
          "audioEvent": {
            "text": "Play_sfx_monster_mimik_fel_giant_down_Loop"
          },
          "otherStateNames": [],
          "usage": "Any"
        }
      ]
    },
    "disableEvent": {
      "text": ""
    },
    "destroyEvent": {
      "text": ""
    }
  }
}
